…
``` r
padj.cutoff=0.05
res_tableOE_tb <- res_tableOE %>%
  data.frame() %>%
  rownames_to_column(var="gene") %>% 
  as_tibble()
sigOE <- res_tableOE_tb %>%
        filter(padj < padj.cutoff)
sigOE
```

    ## # A tibble: 4,770 x 6
    ##    gene            baseMean log2FoldChange  lfcSE       pvalue        padj
    ##    <chr>              <dbl>          <dbl>  <dbl>        <dbl>       <dbl>
    ##  1 ENSG00000000003    3526.         -0.419 0.0781 0.0000000165 0.000000454
    ##  2 ENSG00000000419    1478.          0.345 0.115  0.000745     0.00469    
    ##  3 ENSG00000000460    1160.         -0.246 0.0810 0.00102      0.00606    
    ##  4 ENSG00000001084    1268.         -0.240 0.111  0.0126       0.0469     
    ##  5 ENSG00000001167    2501.         -0.285 0.0650 0.00000357   0.0000510  
    ##  6 ENSG00000002016     921.         -0.271 0.116  0.00663      0.0282     
    ##  7 ENSG00000002330     715.         -0.401 0.133  0.000450     0.00307    
    ##  8 ENSG00000002549    1542.         -0.259 0.0876 0.00124      0.00714    
    ##  9 ENSG00000002834    2669.         -0.226 0.0539 0.0000138    0.000162   
    ## 10 ENSG00000002919     886.         -0.388 0.0869 0.00000177   0.0000276  
    ## # ... with 4,760 more rows

``` r
res_tableKD_tb <- res_tableKD %>%
  data.frame() %>%
  rownames_to_column(var="gene") %>% 
  as_tibble()
  
sigKD <- res_tableKD_tb %>%
        filter(padj < padj.cutoff)
sigKD
```

    ## # A tibble: 2,772 x 6
    ##    gene            baseMean log2FoldChange  lfcSE   pvalue         padj
    ##    <chr>              <dbl>          <dbl>  <dbl>    <dbl>        <dbl>
    ##  1 ENSG00000000457     519.          0.375 0.114  1.61e- 4 0.00254     
    ##  2 ENSG00000002330     715.         -0.350 0.151  2.87e- 3 0.0234      
    ##  3 ENSG00000002549    1542.         -0.426 0.101  2.87e- 6 0.0000867   
    ##  4 ENSG00000002822     654.          0.484 0.266  4.99e- 3 0.0355      
    ##  5 ENSG00000003056    3433.          0.482 0.0793 1.38e-10 0.0000000135
    ##  6 ENSG00000003756    4582.          0.349 0.0726 3.09e- 7 0.0000128   
    ##  7 ENSG00000004399    1279.          0.465 0.141  1.06e- 4 0.00180     
    ##  8 ENSG00000004777     592.         -0.620 0.495  5.72e- 3 0.0394      
    ##  9 ENSG00000005073     601.         -0.282 0.0994 1.09e- 3 0.0114      
    ## 10 ENSG00000005100    2857.          0.230 0.0655 2.09e- 4 0.00312     
    ## # ... with 2,762 more rows
…
normalized_counts = normalized_counts %>% 
  data.frame() %>% rownames_to_column(var='gene')

grch38annot = tx2gene%>%select(gene_id,symbol)%>%distinct()

normalized_counts <- merge(normalized_counts, grch38annot, by.x="gene", by.y="gene_id")

normalized_counts <- normalized_counts %>%
                     as_tibble()
  
normalized_counts 
```

    ## # A tibble: 57,529 x 10
    ##    gene  Irrel_kd_1 Irrel_kd_2 Irrel_kd_3 Mov10_kd_2 Mov10_kd_3 Mov10_oe_1
    ##    <chr>      <dbl>      <dbl>      <dbl>      <dbl>      <dbl>      <dbl>
    ##  1 ENSG~   3924.       3795.      3959.      3951.      3940.      2727.  
    ##  2 ENSG~     24.2        30.2       30.7       23.7       13.9       20.4 
    ##  3 ENSG~   1325.       1340.      1179.      1515.      1431.      1541.  
    ##  4 ENSG~    456.        422.       476.       597.       610.       528.  
    ##  5 ENSG~   1250.       1212.      1134.      1389.      1300.       966.  
    ##  6 ENSG~      0.897       1.04       0          1.28       0          0   
    ##  7 ENSG~     19.7        18.7        9.34      10.2        2.14       7.34
    ##  8 ENSG~   2923.       2705.      2641.      2942.      2971.      2396.  
    ##  9 ENSG~   1308.       1244.      1314.      1449.      1638.       922.  
    ## 10 ENSG~   2752.       2514.      2600.      2948.      2817.      2148.  
    ## # ... with 57,519 more rows, and 3 more variables: Mov10_oe_2 <dbl>,
    ## #   Mov10_oe_3 <dbl>, symbol <chr>
…
